/ This is a comment
= 0
/
L0  NOP
/
L1 JCN 0 L1
L2  FIM 0 L2
 SRC 0 L2
L3  FIN 0 L3
 JIN 0 L3
 JIN 7 L3
L4  JUN L4
L5  JMS L5
 INC 0
 INC 1
L6  ISZ 0 L6
 ADD 14
 SUB 0
 LD 0
 XCH 0
 BBL 0
 LDM 0
 WRM
 WMP
 WRR
 WPM
 WR0
 WR1
 WR2
 WR3
 SBM
 RDM
 RDR
 ADM
 RD0
 RD1
 RD2
 RD3
 CLB
 CLC
 IAC
 CMC
 CMA
 RAL
 RAR
 TCC
 DAC
 TCS
 STC
 DAA
 KBP
 DCL
$