 AS V1.42 Beta [Bld 148] - source file intmini.asm - page 1 - 7/31/2019 17:18:49


       1/       0 :                     ;==================================================================================
       2/       0 :                     ; Contents of this file are copyright Grant Searle
       3/       0 :                     ;
       4/       0 :                     ; You have permission to use this for NON COMMERCIAL USE ONLY
       5/       0 :                     ; If you wish to use it elsewhere, please include an acknowledgement to myself.
       6/       0 :                     ;
       7/       0 :                     ; http://searle.hostei.com/grant/index.html
       8/       0 :                     ;
       9/       0 :                     ; eMail: home.micros01@btinternet.com
      10/       0 :                     ;
      11/       0 :                     ; If the above don't work, please perform an Internet search to see if I have
      12/       0 :                     ; updated the web page hosting service.
      13/       0 :                     ;
      14/       0 :                     ;==================================================================================
      15/       0 :                     
      16/       0 :                     ; Minimum 6850 ACIA interrupt driven serial I/O to run modified NASCOM Basic 4.7
      17/       0 :                     ; Full input buffering with incoming data hardware handshaking
      18/       0 :                     ; Handshake shows full before the buffer is totally filled to allow run-on from the sender
      19/       0 :                     
      20/       0 : =3FH                SER_BUFSIZE     EQU     3FH
      21/       0 : =30H                SER_FULLSIZE    EQU     30H
      22/       0 : =5H                 SER_EMPTYSIZE   EQU     5
      23/       0 :                     
      24/       0 : =D6H                RTS_HIGH        EQU     0D6H
      25/       0 : =96H                RTS_LOW         EQU     096H
      26/       0 :                     
      27/       0 : =2000H              serBuf          EQU     02000H
      28/       0 : =203FH              serInPtr        EQU     serBuf+SER_BUFSIZE
      29/       0 : =2041H              serRdPtr        EQU     serInPtr+2
      30/       0 : =2043H              serBufUsed      EQU     serRdPtr+2
      31/       0 : =2044H              basicStarted    EQU     serBufUsed+1
      32/       0 : =20EDH              TEMPSTACK       EQU     020EDH ; Top of BASIC line input buffer so is "free ram" when BASIC resets
      33/       0 :                     
      34/       0 : =DH                 CR              EQU     0DH
      35/       0 : =AH                 LF              EQU     0AH
      36/       0 : =CH                 CS              EQU     0CH             ; Clear screen
      37/       0 :                     
      38/       0 :                                     ORG 0000
      39/       0 :                     ;------------------------------------------------------------------------------
      40/       0 :                     ; Reset
      41/       0 :                     
      42/       0 : F3                  RST00           DI                       ;Disable interrupts
      43/       1 : C3 BA 00                            JP       INIT            ;Initialize Hardware and go
      44/       4 :                     
      45/       4 : 00 00 00 00                         db  (0008h-$) dup (0)
      46/       8 :                     
      47/       8 :                     ;------------------------------------------------------------------------------
      48/       8 :                     ; TX a character over RS232 
      49/       8 :                     
      50/       8 :                                     ORG     0008H
      51/       8 : C3 A0 00            RST08           JP      TXA
      52/       B :                     
      53/       B : 00 00 00 00 00                      db  (0010h-$) dup (0)
      54/      10 :                     
      55/      10 :                     ;------------------------------------------------------------------------------
      56/      10 :                     ; RX a character over RS232 Channel A [Console], hold here until char ready.
      57/      10 :                     
      58/      10 :                                     ORG 0010H
      59/      10 : C3 75 00            RST10           JP      RXA
      60/      13 :                     
 AS V1.42 Beta [Bld 148] - source file intmini.asm - page 2 - 7/31/2019 17:18:49


      61/      13 : 00 00 00 00 00                      db (0018h - $) dup (0)
      62/      18 :                     
      63/      18 :                     ;------------------------------------------------------------------------------
      64/      18 :                     ; Check serial status
      65/      18 :                     
      66/      18 :                                     ORG 0018H
      67/      18 : C3 AC 00            RST18           JP      CKINCHAR
      68/      1B :                     
      69/      1B : 00 00 00 00 00 00                   db (0038h - $) dup (0)
                    00 00 00 00 00 00 
                    00 00 00 00 00 00 
                    00 00 00 00 00 00 
                    00 00 00 00 00 
      70/      38 :                     
      71/      38 :                     ;------------------------------------------------------------------------------
      72/      38 :                     ; RST 38 - INTERRUPT VECTOR [ for IM 1 ]
      73/      38 :                     
      74/      38 :                                     ORG     0038H
      75/      38 : 18 00               RST38            JR      serialInt       
      76/      3A :                     
      77/      3A :                     ;------------------------------------------------------------------------------
      78/      3A : F5                  serialInt:      PUSH     AF
      79/      3B : E5                                  PUSH     HL
      80/      3C :                     
      81/      3C :                     ;RXD:    
      82/      3C :                     ;		LD A,$37
      83/      3C :                     ;		OUT ($01),A ;ENABLE TX AND RX AND CLEAR ERR BITS
      84/      3C :                     	
      85/      3C : DB 01               LOPTR: 	IN A,(01h)
      86/      3E : E6 02               		AND 02h     ;TXRDY?
      87/      40 : CA 70 00            		JP Z,rts0
      88/      43 :                             
      89/      43 :                                     ;IN       A,(80H)
      90/      43 :                                     ;AND      01H             ; Check if interupt due to read buffer full
      91/      43 :                                     ;JR       Z,rts0          ; if not, ignore
      92/      43 :                     
      93/      43 :                                     ;IN       A,(81H)
      94/      43 : DB 00               		IN A,(00h)   ;RECEIVE CHAR
      95/      45 :                     
      96/      45 : F5                                  PUSH     AF
      97/      46 : 3A 43 20                            LD       A,(serBufUsed)
      98/      49 : FE 3F                               CP       SER_BUFSIZE     ; If full then ignore
      99/      4B : 20 03                               JR       NZ,notFull
     100/      4D : F1                                  POP      AF
     101/      4E : 18 20                               JR       rts0
     102/      50 :                     
     103/      50 : 2A 3F 20            notFull:        LD       HL,(serInPtr)
     104/      53 : 23                                  INC      HL
     105/      54 : 7D                                  LD       A,L             ; Only need to check low byte becasuse buffer<256 bytes
     106/      55 : FE 3F                               CP       (serBuf+SER_BUFSIZE) & 0FFH
     107/      57 : 20 03                               JR       NZ, notWrap
     108/      59 : 21 00 20                            LD       HL,serBuf
     109/      5C : 22 3F 20            notWrap:        LD       (serInPtr),HL
     110/      5F : F1                                  POP      AF
     111/      60 : 77                                  LD       (HL),A
     112/      61 : 3A 43 20                            LD       A,(serBufUsed)
     113/      64 : 3C                                  INC      A
     114/      65 : 32 43 20                            LD       (serBufUsed),A
     115/      68 : FE 30                               CP       SER_FULLSIZE
     116/      6A : 38 04                               JR       C,rts0
 AS V1.42 Beta [Bld 148] - source file intmini.asm - page 3 - 7/31/2019 17:18:49


     117/      6C : 3E D6                               LD       A,RTS_HIGH
     118/      6E : D3 80                               OUT      (80H),A
     119/      70 : E1                  rts0:           POP      HL
     120/      71 : F1                                  POP      AF
     121/      72 : FB                                  EI
     122/      73 : ED 4D                               RETI
     123/      75 :                     
     124/      75 :                     ;------------------------------------------------------------------------------
     125/      75 :                     RXA:
     126/      75 : 3A 43 20            waitForChar:    LD       A,(serBufUsed)
     127/      78 : FE 00                               CP       00H
     128/      7A : 28 F9                               JR       Z, waitForChar
     129/      7C : E5                                  PUSH     HL
     130/      7D : 2A 41 20                            LD       HL,(serRdPtr)
     131/      80 : 23                                  INC      HL
     132/      81 : 7D                                  LD       A,L             ; Only need to check low byte becasuse buffer<256 bytes
     133/      82 : FE 3F                               CP       (serBuf+SER_BUFSIZE) & 0FFH
     134/      84 : 20 03                               JR       NZ, notRdWrap
     135/      86 : 21 00 20                            LD       HL,serBuf
     136/      89 : F3                  notRdWrap:      DI
     137/      8A : 22 41 20                            LD       (serRdPtr),HL
     138/      8D : 3A 43 20                            LD       A,(serBufUsed)
     139/      90 : 3D                                  DEC      A
     140/      91 : 32 43 20                            LD       (serBufUsed),A
     141/      94 : FE 05                               CP       SER_EMPTYSIZE
     142/      96 : 30 04                               JR       NC,rts1
     143/      98 : 3E 96                               LD       A,RTS_LOW
     144/      9A : D3 80                               OUT      (80H),A
     145/      9C :                     rts1:
     146/      9C : 7E                                  LD       A,(HL)
     147/      9D : FB                                  EI
     148/      9E : E1                                  POP      HL
     149/      9F : C9                                  RET                      ; Char ready in A
     150/      A0 :                     
     151/      A0 :                     ;------------------------------------------------------------------------------
     152/      A0 : F5                  TXA:            PUSH AF
     153/      A1 : DB 01               LOPTX: 	        IN A,(01h)
     154/      A3 : E6 01               		AND 01h     ;TXRDY?
     155/      A5 : CA A1 00            		JP Z,LOPTX
     156/      A8 : F1                  		POP AF
     157/      A9 : D3 00               		OUT (00h),A
     158/      AB : C9                  		RET
     159/      AC :                     
     160/      AC :                     ;                PUSH     AF              ; Store character
     161/      AC :                     ;conout1:        IN       A,(80H)         ; Status byte       
     162/      AC :                     ;                BIT      1,A             ; Set Zero flag if still transmitting character       
     163/      AC :                     ;                JR       Z,conout1       ; Loop until flag signals ready
     164/      AC :                     ;                POP      AF              ; Retrieve character
     165/      AC :                     ;                OUT      (81H),A         ; Output the character
     166/      AC :                     ;                RET
     167/      AC :                     
     168/      AC :                     ;------------------------------------------------------------------------------
     169/      AC : 3A 43 20            CKINCHAR        LD       A,(serBufUsed)
     170/      AF : FE 00                               CP       0
     171/      B1 : C9                                  RET
     172/      B2 :                     
     173/      B2 : 7E                  PRINT:          LD       A,(HL)          ; Get character
     174/      B3 : B7                                  OR       A               ; Is it $00 ?
     175/      B4 : C8                                  RET      Z               ; Then RETurn on terminator
     176/      B5 : CF                                  RST      08H             ; Print it
 AS V1.42 Beta [Bld 148] - source file intmini.asm - page 4 - 7/31/2019 17:18:49


     177/      B6 : 23                                  INC      HL              ; Next Character
     178/      B7 : 18 F9                               JR       PRINT           ; Continue until $00
     179/      B9 : C9                                  RET
     180/      BA :                     ;------------------------------------------------------------------------------
     181/      BA :                     INIT:
     182/      BA : 21 ED 20                           LD        HL,TEMPSTACK    ; Temp stack
     183/      BD : F9                                 LD        SP,HL           ; Set up a temporary stack
     184/      BE : 21 00 20                           LD        HL,serBuf
     185/      C1 : 22 3F 20                           LD        (serInPtr),HL
     186/      C4 : 22 41 20                           LD        (serRdPtr),HL
     187/      C7 : AF                                 XOR       A               ;0 to accumulator
     188/      C8 : 32 43 20                           LD        (serBufUsed),A
     189/      CB :                     
     190/      CB : 3E 4D               		LD A,4Dh            ; ERTURK changed from 4E to 4D
     191/      CD : D3 01               		OUT (01h),A      	 ; 8-N-1  CLK/1  4EH FOR /16, 4D FOR /1  (MODE )
     192/      CF : 00                                  NOP
     193/      D0 : 00                                  NOP
     194/      D1 : 3E 37               		LD A,37h            
     195/      D3 : D3 01               		OUT (01h),A      	 ; RESET ALL ERROR FLAGS AND ENABLE RXRDY,TXRDY (COMMAND)
     196/      D5 :                     
     197/      D5 : ED 56                              IM        1
     198/      D7 : FB                                 EI
     199/      D8 : 21 11 01                           LD        HL,SIGNON1      ; Sign-on message
     200/      DB : CD B2 00                           CALL      PRINT           ; Output string
     201/      DE : 3A 44 20                           LD        A,(basicStarted); Check the BASIC STARTED flag
     202/      E1 : FE 59                              CP        'Y'             ; to see if this is power-up
     203/      E3 : 20 16                              JR        NZ,COLDSTART    ; If not BASIC started then always do cold start
     204/      E5 : 21 2C 01                           LD        HL,SIGNON2      ; Cold/warm message
     205/      E8 : CD B2 00                           CALL      PRINT           ; Output string
     206/      EB :                     CORW:
     207/      EB : CD 75 00                           CALL      RXA
     208/      EE : E6 DF                              AND       11011111B       ; lower to uppercase
     209/      F0 : FE 43                              CP        'C'
     210/      F2 : 20 0F                              JR        NZ, CHECKWARM
     211/      F4 : CF                                 RST       08H
     212/      F5 : 3E 0D                              LD        A,0DH
     213/      F7 : CF                                 RST       08H
     214/      F8 : 3E 0A                              LD        A,0AH
     215/      FA : CF                                 RST       08H
     216/      FB : 3E 59               COLDSTART:     LD        A,'Y'           ; Set the BASIC STARTED flag
     217/      FD : 32 44 20                           LD        (basicStarted),A
     218/     100 : C3 50 01                           JP        0150H           ; Start BASIC COLD
     219/     103 :                     CHECKWARM:
     220/     103 : FE 57                              CP        'W'
     221/     105 : 20 E4                              JR        NZ, CORW
     222/     107 : CF                                 RST       08H
     223/     108 : 3E 0D                              LD        A,0DH
     224/     10A : CF                                 RST       08H
     225/     10B : 3E 0A                              LD        A,0AH
     226/     10D : CF                                 RST       08H
     227/     10E : C3 53 01                           JP        0153H           ; Start BASIC WARM
     228/     111 :                                   
     229/     111 : 0C                  SIGNON1:       DB     CS
     230/     112 : 5A 38 30 20 53 42                  DB     "Z80 SBC By Grant Searle",CR,LF,0
                    43 20 42 79 20 47 
                    72 61 6E 74 20 53 
                    65 61 72 6C 65 0D 
                    0A 00 
     231/     12C : 0D 0A               SIGNON2:       DB     CR,LF
     232/     12E : 43 6F 6C 64 20 6F                  DB     "Cold or warm start (C or W)? ",0
 AS V1.42 Beta [Bld 148] - source file intmini.asm - page 5 - 7/31/2019 17:18:49


                    72 20 77 61 72 6D 
                    20 73 74 61 72 74 
                    20 28 43 20 6F 72 
                    20 57 29 3F 20 00 
     233/     14C :                     
     234/     14C : 00 00 00 00                         DB (00150H - $) dup (0)
     235/     150 :                     
     236/     150 :                     .END
     237/     150 :                     
 AS V1.42 Beta [Bld 148] - source file intmini.asm - page 6 - 7/31/2019 17:18:49


  symbol table (* = unused):
  ------------------------

*ARCHITECTURE :  i386-unknown-win32 - |  BASICSTARTED :                2044 - |
*BIGENDIAN :                      0 - | *BRANCHEXT :                      0 - |
*CASESENSITIVE :                  0 - |  CHECKWARM :                    103 C |
 CKINCHAR :                      AC C |  COLDSTART :                     FB C |
*CONSTPI :        3.141592653589793 - |  CORW :                          EB C |
 CR :                             D - |  CS :                             C - |
*DATE :                   7/31/2019 - | *FALSE :                          0 - |
*FULLPMMU :                       1 - | *HAS64 :                          1 - |
*HASDSP :                         0 - | *HASFPU :                         0 - |
*HASPMMU :                        0 - | *INEXTMODE :                      0 - |
 INIT :                          BA C | *INLWORDMODE :                    0 - |
*INMAXMODE :                      0 - | *INSRCMODE :                      0 - |
*INSUPMODE :                      0 - |  LF :                             A - |
*LISTON :                         1 - | *LOPTR :                         3C C |
 LOPTX :                         A1 C | *MACEXP :                         7 - |
*MOMCPU :                        80 - | *MOMCPUNAME :                   Z80 - |
*NESTMAX :                      100 - |  NOTFULL :                       50 C |
 NOTRDWRAP :                     89 C |  NOTWRAP :                       5C C |
*PACKING :                        0 - | *PADDING :                        1 - |
 PRINT :                         B2 C | *RELAXED :                        0 - |
*RST00 :                          0 C | *RST08 :                          8 C |
*RST10 :                         10 C | *RST18 :                         18 C |
*RST38 :                         38 C |  RTS0 :                          70 C |
 RTS1 :                          9C C |  RTS_HIGH :                      D6 - |
 RTS_LOW :                       96 - |  RXA :                           75 C |
 SERBUF :                      2000 - |  SERBUFUSED :                  2043 - |
 SERIALINT :                     3A C |  SERINPTR :                    203F - |
 SERRDPTR :                    2041 - |  SER_BUFSIZE :                   3F - |
 SER_EMPTYSIZE :                  5 - |  SER_FULLSIZE :                  30 - |
 SIGNON1 :                      111 C |  SIGNON2 :                      12C C |
*SIGNON2.END :                  150 C |  TEMPSTACK :                   20ED - |
*TIME :                    17:18:49 - | *TRUE :                           1 - |
 TXA :                           A0 C | *VERSION :                     142F - |
 WAITFORCHAR :                   75 C |

     67 symbols
     35 unused symbols

 AS V1.42 Beta [Bld 148] - source file intmini.asm - page 7 - 7/31/2019 17:18:49


  codepages:
  ----------

STANDARD (0 changed characters)


0.01 seconds assembly time

    237 lines source file
      2 passes
      0 errors
      0 warnings
